…
Now combine annual precipitation.

``` r
month_df = 
  tibble(
    month = 1:12,
    month_name = month.name
  )
precip_df = 
  bind_rows(precip_2018, precip_2017)

left_join(precip_df, month_df, by = "month")
```

    ## # A tibble: 24 x 4
    ##     year month total month_name
    ##    <dbl> <dbl> <dbl> <chr>     
    ##  1  2018     1  0.94 January   
    ##  2  2018     2  4.8  February  
    ##  3  2018     3  2.69 March     
    ##  4  2018     4  4.69 April     
    ##  5  2018     5  9.27 May       
    ##  6  2018     6  4.77 June      
    ##  7  2018     7 10.2  July      
    ##  8  2018     8  6.45 August    
    ##  9  2018     9 10.5  September 
    ## 10  2018    10  2.12 October   
    ## # … with 14 more rows
…
``` r
distinct_data1 = distinct(nyc_df, line, station_name, .keep_all = TRUE)
```

There are 465 distinct stations here.

``` r
filter(distinct_data1,  ada == "TRUE")
```

    ## # A tibble: 84 x 19
    ##    line  station_name station_latitude station_longitu… entry route1 route2
    ##    <chr> <chr>                   <dbl>            <dbl> <lgl> <chr>  <chr> 
    ##  1 4 Av… Atlantic Av…             40.7            -74.0 TRUE  B      Q     
    ##  2 4 Av… DeKalb Av                40.7            -74.0 TRUE  B      Q     
    ##  3 4 Av… Pacific St               40.7            -74.0 TRUE  B      Q     
    ##  4 42nd… Grand Centr…             40.8            -74.0 TRUE  GS     4     
    ##  5 6 Av… 34th St                  40.7            -74.0 TRUE  B      D     
    ##  6 6 Av… 47-50th Sts…             40.8            -74.0 TRUE  B      D     
    ##  7 6 Av… Church Av                40.6            -74.0 TRUE  F      <NA>  
    ##  8 63rd… 21st St                  40.8            -73.9 TRUE  F      <NA>  
    ##  9 63rd… Lexington Av             40.8            -74.0 TRUE  F      <NA>  
    ## 10 63rd… Roosevelt I…             40.8            -74.0 TRUE  F      <NA>  
    ## # … with 74 more rows, and 12 more variables: route3 <chr>, route4 <chr>,
    ## #   route5 <chr>, route6 <chr>, route7 <chr>, route8 <dbl>, route9 <dbl>,
    ## #   route10 <dbl>, route11 <dbl>, vending <chr>, entrance_type <chr>, ada <lgl>

There are 84 stations are ADA compliant.

``` r
filter(nyc_df,  vending == "NO")
```

    ## # A tibble: 183 x 19
    ##    line  station_name station_latitude station_longitu… entry route1 route2
    ##    <chr> <chr>                   <dbl>            <dbl> <lgl> <chr>  <chr> 
    ##  1 4 Av… 53rd St                  40.6            -74.0 FALSE R      <NA>  
    ##  2 4 Av… 77th St                  40.6            -74.0 FALSE R      <NA>  
    ##  3 4 Av… 9th St                   40.7            -74.0 TRUE  F      G     
    ##  4 4 Av… Bay Ridge Av             40.6            -74.0 FALSE R      <NA>  
    ##  5 42nd… Grand Centr…             40.8            -74.0 FALSE GS     4     
    ##  6 42nd… Grand Centr…             40.8            -74.0 FALSE GS     4     
    ##  7 6 Av… 7th Av                   40.7            -74.0 TRUE  F      <NA>  
    ##  8 6 Av… 7th Av                   40.7            -74.0 TRUE  F      <NA>  
    ##  9 6 Av… 7th Av                   40.7            -74.0 TRUE  F      <NA>  
    ## 10 6 Av… 7th Av                   40.7            -74.0 TRUE  F      <NA>  
    ## # … with 173 more rows, and 12 more variables: route3 <chr>, route4 <chr>,
    ## #   route5 <chr>, route6 <chr>, route7 <chr>, route8 <dbl>, route9 <dbl>,
    ## #   route10 <dbl>, route11 <dbl>, vending <chr>, entrance_type <chr>, ada <lgl>
…
``` r
distinct_data2 = distinct(nyc_df_tidy, line, station_name, .keep_all = TRUE)
filter(distinct_data2,  route_name == "A")
```

    ## # A tibble: 60 x 10
    ##    line  station_name station_latitude station_longitu… entry vending
    ##    <chr> <chr>                   <dbl>            <dbl> <lgl> <chr>  
    ##  1 42nd… Times Square             40.8            -74.0 TRUE  YES    
    ##  2 8 Av… 125th St                 40.8            -74.0 TRUE  YES    
    ##  3 8 Av… 145th St                 40.8            -73.9 TRUE  YES    
    ##  4 8 Av… 14th St                  40.7            -74.0 TRUE  YES    
    ##  5 8 Av… 168th St - …             40.8            -73.9 TRUE  YES    
    ##  6 8 Av… 175th St                 40.8            -73.9 TRUE  YES    
    ##  7 8 Av… 181st St                 40.9            -73.9 TRUE  YES    
    ##  8 8 Av… 190th St                 40.9            -73.9 TRUE  YES    
    ##  9 8 Av… 34th St                  40.8            -74.0 TRUE  YES    
    ## 10 8 Av… 42nd St                  40.8            -74.0 TRUE  YES    
    ## # … with 50 more rows, and 4 more variables: entrance_type <chr>, ada <lgl>,
    ## #   route_number <chr>, route_name <chr>
…
